Appendix A — Data Overview – Spice Girls Project
…
The above information shows the structure of the lyrics data set. There are 9 variables being measured and 1,885 data points. All of the variables are identified as either a col_double or col_character and measure the various song lines in the Spice Girls music.

A.2.2 Total number of lines in Spice Girls songs

lyrics |>
  group_by(song_name) |>
  summarise(total_lines = max(line_number)) |>
  arrange(desc(total_lines))

# A tibble: 31 × 2
   song_name              total_lines
   <chr>                        <dbl>
 1 "Holler"                       105
 2 "Saturday Night Divas"          84
 3 "Love Thing"                    80
 4 "Tell Me Why"                   80
 5 "If U Can\x92t Dance"           73
 6 "Last Time Lover"               72
 7 "Denying"                       71
 8 "Do It"                         71
 9 "Right Back At Ya"              71
10 "Naked"                         70
# ℹ 21 more rows
…
