Report – Spice Girls Project
…
Total number of lines in Spice Girls songs

lyrics |>
  group_by(song_name) |>
  summarise(total_lines = max(line_number))

# A tibble: 31 × 2
   song_name                    total_lines
   <chr>                              <dbl>
 1 "2 Become 1"                          42
 2 "Denying"                             71
 3 "Do It"                               71
 4 "Get Down With Me"                    53
 5 "Goodbye"                             53
 6 "Holler"                             105
 7 "If U Can\x92t Dance"                 73
 8 "If You Wanna Have Some Fun"          68
 9 "Last Time Lover"                     72
10 "Let Love Lead the Way"               67
# ℹ 21 more rows
…
